%YAML 1.1
%TAG !u! tag:unity3d.com,2011:
--- !u!74 &7400000
AnimationClip:
  m_ObjectHideFlags: 0
  m_PrefabParentObject: {fileID: 0}
  m_PrefabInternal: {fileID: 0}
  m_Name: goalAnm
  serializedVersion: 4
  m_AnimationType: 2
  m_Compressed: 0
  m_UseHighQualityCurve: 1
  m_RotationCurves: []
  m_CompressedRotationCurves: []
  m_PositionCurves: []
  m_ScaleCurves: []
  m_FloatCurves: []
  m_PPtrCurves:
  - curve:
    - time: 0
      value: {fileID: 21300000, guid: 4150d0cb49a331d429fe114f64877912, type: 3}
    - time: .0333333351
      value: {fileID: 21300000, guid: df853fae021d2f245bdaeaddbc717e82, type: 3}
    - time: .0666666701
      value: {fileID: 21300000, guid: 82924a65018289e468b0e07dfbb85d39, type: 3}
    - time: .100000001
      value: {fileID: 21300000, guid: 08d9b3e85efb50947941c3b53f328237, type: 3}
    - time: .13333334
      value: {fileID: 21300000, guid: e3594ff63f9506a4496b88ceda1eb58f, type: 3}
    - time: .166666672
      value: {fileID: 21300000, guid: 04db37eadfc1d26419c9f3dcb6b65eb6, type: 3}
    - time: .200000003
      value: {fileID: 21300000, guid: 9d709f73094f80d469bc027f0f825c50, type: 3}
    - time: .233333334
      value: {fileID: 21300000, guid: eb33be154b2fd34449a97befd7b8fdc9, type: 3}
    - time: .266666681
      value: {fileID: 21300000, guid: d348add3f5aed1442a0f23f08f4e8528, type: 3}
    - time: .300000012
      value: {fileID: 21300000, guid: 3ac14f2a22cedcd4a8448094d5294010, type: 3}
    - time: .333333343
      value: {fileID: 21300000, guid: 86db789edd7c1df439c5690092604fce, type: 3}
    - time: .366666675
      value: {fileID: 21300000, guid: 03f08c4f2b0bd674c915c49248a5b067, type: 3}
    - time: .400000006
      value: {fileID: 21300000, guid: 4988b8c768e9f5a4eb9999fb4034b8f8, type: 3}
    - time: .433333337
      value: {fileID: 21300000, guid: 3335e7b87ecc10f4eb7a01090277b56f, type: 3}
    - time: .466666669
      value: {fileID: 21300000, guid: 21c92608350cfd14995a92d912d38b5e, type: 3}
    - time: .5
      value: {fileID: 21300000, guid: 3fbdb74cd6d78134081e0f3dba861991, type: 3}
    - time: .533333361
      value: {fileID: 21300000, guid: a0f6052857c253c4fb3e56d3a5d677d2, type: 3}
    - time: .566666663
      value: {fileID: 21300000, guid: 76e025b2e5b6674498cbba80aff04af6, type: 3}
    - time: .600000024
      value: {fileID: 21300000, guid: 72ef868af8233c54f89e7a022c83f336, type: 3}
    - time: .633333325
      value: {fileID: 21300000, guid: 665c23795e64f744f9d4156f8a897f42, type: 3}
    - time: .666666687
      value: {fileID: 21300000, guid: 91214ebb1f0b84b4791827cfb0c95760, type: 3}
    - time: .699999988
      value: {fileID: 21300000, guid: 170a9466846021347bd00b753ba1ffff, type: 3}
    - time: .733333349
      value: {fileID: 21300000, guid: 74682d2c6c51e1849a2b866579afc99a, type: 3}
    - time: .766666651
      value: {fileID: 21300000, guid: 06354944ad253e24eb5b01facf7978df, type: 3}
    - time: .800000012
      value: {fileID: 21300000, guid: f4f5d9cd4037c584ea5f5d930cc03c36, type: 3}
    - time: .833333313
      value: {fileID: 21300000, guid: 071f7066bea4a044587de833fb9095f0, type: 3}
    - time: .866666675
      value: {fileID: 21300000, guid: d0fff14248074b74bae2f09a787f8875, type: 3}
    - time: .899999976
      value: {fileID: 21300000, guid: 5c7281a53f591cf45a4ed54f46e9860a, type: 3}
    - time: .933333337
      value: {fileID: 21300000, guid: 705ea3cefbd74ea48a35d72b0a83ff37, type: 3}
    - time: .966666639
      value: {fileID: 21300000, guid: 23156f35388ed62488c211078590969f, type: 3}
    - time: 1
      value: {fileID: 21300000, guid: 97ed261e06aadad48b543a44bc54a5ac, type: 3}
    - time: 1.0333333
      value: {fileID: 21300000, guid: 2c135d0e6b6ddfb4ea073443fdc4e3ee, type: 3}
    - time: 1.06666672
      value: {fileID: 21300000, guid: 859bf7e7ed16dc44b8195ae54096286b, type: 3}
    - time: 1.10000002
      value: {fileID: 21300000, guid: d1ae5bf57f35deb4e84ffebc5c0e2986, type: 3}
    - time: 1.13333333
      value: {fileID: 21300000, guid: 537e05d8c2651604586219057acd2b21, type: 3}
    - time: 1.16666663
      value: {fileID: 21300000, guid: 193c4caeec66a7443b8d0b1d069cff79, type: 3}
    - time: 1.20000005
      value: {fileID: 21300000, guid: 721cf89a60983d34dabca8a7da9af38a, type: 3}
    - time: 1.23333335
      value: {fileID: 21300000, guid: 6bc18a90434dc7f4fa29b87b0e41eff9, type: 3}
    - time: 1.26666665
      value: {fileID: 21300000, guid: 9fc7b8b1989d98746b8614b391395be4, type: 3}
    - time: 1.29999995
      value: {fileID: 21300000, guid: ee7185f249a10ad4eb9c88892302a789, type: 3}
    - time: 1.33333337
      value: {fileID: 21300000, guid: 79760660d5eb77c4c9714cfe1b76afda, type: 3}
    - time: 1.36666667
      value: {fileID: 21300000, guid: 96fe04ffa37a9234b9f568fa705628e4, type: 3}
    - time: 1.39999998
      value: {fileID: 21300000, guid: 77bc2532374f16c46bef7d3851634ba0, type: 3}
    - time: 1.43333328
      value: {fileID: 21300000, guid: abe4f3d300cd5694ba006213ac84bf18, type: 3}
    - time: 1.4666667
      value: {fileID: 21300000, guid: fe33d547ceda51241b311ece6f03510b, type: 3}
    attribute: m_Sprite
    path: 
    classID: 212
    script: {fileID: 0}
  m_SampleRate: 30
  m_WrapMode: 0
  m_Bounds:
    m_Center: {x: 0, y: 0, z: 0}
    m_Extent: {x: 0, y: 0, z: 0}
  m_ClipBindingConstant:
    genericBindings:
    - path: 0
      attribute: 0
      script: {fileID: 0}
      classID: 212
      customType: 23
      isPPtrCurve: 1
    pptrCurveMapping:
    - {fileID: 21300000, guid: 4150d0cb49a331d429fe114f64877912, type: 3}
    - {fileID: 21300000, guid: df853fae021d2f245bdaeaddbc717e82, type: 3}
    - {fileID: 21300000, guid: 82924a65018289e468b0e07dfbb85d39, type: 3}
    - {fileID: 21300000, guid: 08d9b3e85efb50947941c3b53f328237, type: 3}
    - {fileID: 21300000, guid: e3594ff63f9506a4496b88ceda1eb58f, type: 3}
    - {fileID: 21300000, guid: 04db37eadfc1d26419c9f3dcb6b65eb6, type: 3}
    - {fileID: 21300000, guid: 9d709f73094f80d469bc027f0f825c50, type: 3}
    - {fileID: 21300000, guid: eb33be154b2fd34449a97befd7b8fdc9, type: 3}
    - {fileID: 21300000, guid: d348add3f5aed1442a0f23f08f4e8528, type: 3}
    - {fileID: 21300000, guid: 3ac14f2a22cedcd4a8448094d5294010, type: 3}
    - {fileID: 21300000, guid: 86db789edd7c1df439c5690092604fce, type: 3}
    - {fileID: 21300000, guid: 03f08c4f2b0bd674c915c49248a5b067, type: 3}
    - {fileID: 21300000, guid: 4988b8c768e9f5a4eb9999fb4034b8f8, type: 3}
    - {fileID: 21300000, guid: 3335e7b87ecc10f4eb7a01090277b56f, type: 3}
    - {fileID: 21300000, guid: 21c92608350cfd14995a92d912d38b5e, type: 3}
    - {fileID: 21300000, guid: 3fbdb74cd6d78134081e0f3dba861991, type: 3}
    - {fileID: 21300000, guid: a0f6052857c253c4fb3e56d3a5d677d2, type: 3}
    - {fileID: 21300000, guid: 76e025b2e5b6674498cbba80aff04af6, type: 3}
    - {fileID: 21300000, guid: 72ef868af8233c54f89e7a022c83f336, type: 3}
    - {fileID: 21300000, guid: 665c23795e64f744f9d4156f8a897f42, type: 3}
    - {fileID: 21300000, guid: 91214ebb1f0b84b4791827cfb0c95760, type: 3}
    - {fileID: 21300000, guid: 170a9466846021347bd00b753ba1ffff, type: 3}
    - {fileID: 21300000, guid: 74682d2c6c51e1849a2b866579afc99a, type: 3}
    - {fileID: 21300000, guid: 06354944ad253e24eb5b01facf7978df, type: 3}
    - {fileID: 21300000, guid: f4f5d9cd4037c584ea5f5d930cc03c36, type: 3}
    - {fileID: 21300000, guid: 071f7066bea4a044587de833fb9095f0, type: 3}
    - {fileID: 21300000, guid: d0fff14248074b74bae2f09a787f8875, type: 3}
    - {fileID: 21300000, guid: 5c7281a53f591cf45a4ed54f46e9860a, type: 3}
    - {fileID: 21300000, guid: 705ea3cefbd74ea48a35d72b0a83ff37, type: 3}
    - {fileID: 21300000, guid: 23156f35388ed62488c211078590969f, type: 3}
    - {fileID: 21300000, guid: 97ed261e06aadad48b543a44bc54a5ac, type: 3}
    - {fileID: 21300000, guid: 2c135d0e6b6ddfb4ea073443fdc4e3ee, type: 3}
    - {fileID: 21300000, guid: 859bf7e7ed16dc44b8195ae54096286b, type: 3}
    - {fileID: 21300000, guid: d1ae5bf57f35deb4e84ffebc5c0e2986, type: 3}
    - {fileID: 21300000, guid: 537e05d8c2651604586219057acd2b21, type: 3}
    - {fileID: 21300000, guid: 193c4caeec66a7443b8d0b1d069cff79, type: 3}
    - {fileID: 21300000, guid: 721cf89a60983d34dabca8a7da9af38a, type: 3}
    - {fileID: 21300000, guid: 6bc18a90434dc7f4fa29b87b0e41eff9, type: 3}
    - {fileID: 21300000, guid: 9fc7b8b1989d98746b8614b391395be4, type: 3}
    - {fileID: 21300000, guid: ee7185f249a10ad4eb9c88892302a789, type: 3}
    - {fileID: 21300000, guid: 79760660d5eb77c4c9714cfe1b76afda, type: 3}
    - {fileID: 21300000, guid: 96fe04ffa37a9234b9f568fa705628e4, type: 3}
    - {fileID: 21300000, guid: 77bc2532374f16c46bef7d3851634ba0, type: 3}
    - {fileID: 21300000, guid: abe4f3d300cd5694ba006213ac84bf18, type: 3}
    - {fileID: 21300000, guid: fe33d547ceda51241b311ece6f03510b, type: 3}
  m_AnimationClipSettings:
    serializedVersion: 2
    m_StartTime: 0
    m_StopTime: 1.5
    m_OrientationOffsetY: 0
    m_Level: 0
    m_CycleOffset: 0
    m_LoopTime: 1
    m_LoopBlend: 0
    m_LoopBlendOrientation: 0
    m_LoopBlendPositionY: 0
    m_LoopBlendPositionXZ: 0
    m_KeepOriginalOrientation: 0
    m_KeepOriginalPositionY: 1
    m_KeepOriginalPositionXZ: 0
    m_HeightFromFeet: 0
    m_Mirror: 0
  m_EditorCurves: []
  m_EulerEditorCurves: []
  m_Events: []
